%YAML 1.1
%TAG !u! tag:unity3d.com,2011:
--- !u!114 &11400000
MonoBehaviour:
  m_ObjectHideFlags: 0
  m_CorrespondingSourceObject: {fileID: 0}
  m_PrefabInstance: {fileID: 0}
  m_PrefabAsset: {fileID: 0}
  m_GameObject: {fileID: 0}
  m_Enabled: 1
  m_EditorHideFlags: 0
  m_Script: {fileID: 11500000, guid: ac3733a16c3f48498ad11e1e1ff8c150, type: 3}
  m_Name: ExampleTutorialData
  m_EditorClassIdentifier: 
  usePrettyJsonFormat: 0
  tutorialId: Tutorial Example
  steps:
  - {fileID: 614927785463091927, guid: c3b9d93836a0a3842aaba63454d468ac, type: 3}
  - {fileID: 5468726853275659025, guid: 7711ec1d08ce4db41bafbaef70e99c89, type: 3}
  - {fileID: 557665726681854052, guid: 66ffd51ece7bd5e46ab047d78f6c1f31, type: 3}
  - {fileID: 8761555045676347363, guid: 932ef3e52d88a4b4bb3bb58ea16b2517, type: 3}
  - {fileID: 7588467201382048630, guid: 1cfd6ccfcebcca04a8812178643f0923, type: 3}
